[
    {
        "_act_id": "1",
        "sport_name": "horse_racing",
        "act_scenes": [
            {
                "scene_index": 0,
                "scene_components": [
                    {
                        "component": "mascot"
                    },
                    {
                        "component": "speech-bubbles",
                        "component_data": {
                            "twoWayChat": false,
                            "convo": [
                                {
                                    "type": "text",
                                    "direction": "to",
                                    "timingDelay": 7000,
                                    "content": {
                                        "text":
                                            "Welcome to <strong>{{course_style_name}}</strong> for the <strong>{{race_instance_title}}</strong>. There are <strong>{{no_of_runners}}</strong> runners{{till_race_time}}"
                                    }
                                },
                                {
                                    "type": "book-maker",
                                    "direction": "to",
                                    "timingDelay": 7000
                                }
                            ]
                        }
                    },
                    {
                        "component": "race-card",
                        "component_data": {
                            "isScrollable": false,
                            "autoScroll": true
                        }
                    }
                ]
            }
        ]
    },
    {
        "_act_id": "2",
        "sport_name": "greyhound_racing",
        "act_scenes": [
            {
                "scene_index": 0,
                "scene_components": [
                    {
                        "component": "mascot"
                    },
                    {
                        "component": "speech-bubbles",
                        "component_data": {
                            "twoWayChat": false,
                            "convo": [
                                {
                                    "type": "text",
                                    "direction": "to",
                                    "timingDelay": 3000,
                                    "content": {
                                        "text":
                                            "Hi welcome to the <strong>{{race_datetime}}</strong> at <strong>{{track_name}}</strong>. Heres the racecard and latest betting"
                                    }
                                },
                                {
                                    "type": "book-maker",
                                    "direction": "to",
                                    "timingDelay": 7000
                                },
                                {
                                    "type": "text",
                                    "direction": "to",
                                    "timingDelay": 3000,
                                    "content": {
                                        "text":
                                            "Here is what the {{logo}} predictor thinks will happen:"
                                    }
                                },
                                {
                                    "type": "race_video",
                                    "direction": "to",
                                    "timingDelay": 8000
                                }
                            ]
                        }
                    },
                    {
                        "component": "gh-race-card",
                        "component_data": {
                            "isScrollable": false
                        }
                    }
                ]
            }
        ]
    }
]
